{
  "db": {
    "name": "qrcodeDB",
    "username": "box20211105",
    "password": "1qaz!QAZ",
    "options": {
      "host":"114.33.155.37",
      "port": 3306,
      "dialect": "mysql",
      "logging": false
    }
  }
}